{
  "type": "FeatureCollection",
  "generator": "overpass-ide",
  "copyright": "The data included in this document is from www.openstreetmap.org. The data is made available under ODbL.",
  "timestamp": "2020-04-29T09:54:03Z",
  "features": [
    {
      "type": "Feature",
      "properties": {
        "@id": "way/4702278",
        "aerialway": "gondola",
        "aerialway:capacity": "1500",
        "aerialway:occupancy": "6",
        "name": "Pozza - Buffaure",
        "ref": "201"
      },
      "geometry": {
        "type": "LineString",
        "coordinates": [
          [
            11.6983512,
            46.4278218
          ],
          [
            11.7227894,
            46.4306435
          ]
        ]
      },
      "id": "way/4702278"
    },
    {
      "type": "Feature",
      "properties": {
        "@id": "way/4702282",
        "aerialway": "gondola",
        "aerialway:capacity": "2400",
        "aerialway:occupancy": "12",
        "name": "Canazei - Pecol",
        "ref": "101"
      },
      "geometry": {
        "type": "LineString",
        "coordinates": [
          [
            11.7747887,
            46.4743643
          ],
          [
            11.7773095,
            46.4756361
          ],
          [
            11.7779497,
            46.4759591
          ],
          [
            11.7798717,
            46.4769662
          ],
          [
            11.781615,
            46.4778358
          ],
          [
            11.7824687,
            46.4782699
          ],
          [
            11.7836729,
            46.4788823
          ],
          [
            11.7841843,
            46.4791423
          ],
          [
            11.7859887,
            46.4800599
          ],
          [
            11.7877415,
            46.4809512
          ],
          [
            11.7878297,
            46.480996
          ],
          [
            11.7881708,
            46.4811695
          ]
        ]
      },
      "id": "way/4702282"
    },
    {
      "type": "Feature",
      "properties": {
        "@id": "way/23121768",
        "aerialway": "gondola",
        "aerialway:occupancy": "12",
        "name": "(37) Spinale express"
      },
      "geometry": {
        "type": "LineString",
        "coordinates": [
          [
            10.8294225,
            46.228409
          ],
          [
            10.8298347,
            46.2282839
          ],
          [
            10.8302701,
            46.2281615
          ],
          [
            10.8320254,
            46.2276679
          ],
          [
            10.8337844,
            46.2271732
          ],
          [
            10.834619,
            46.2269385
          ],
          [
            10.8354402,
            46.2267076
          ],
          [
            10.8395547,
            46.2255506
          ],
          [
            10.8422528,
            46.2247918
          ],
          [
            10.8441108,
            46.2242693
          ],
          [
            10.8444479,
            46.2241745
          ],
          [
            10.846813,
            46.2235093
          ],
          [
            10.847319,
            46.223367
          ],
          [
            10.8477798,
            46.2232375
          ]
        ]
      },
      "id": "way/23121768"
    },
    {
      "type": "Feature",
      "properties": {
        "@id": "way/23450262",
        "aerialway": "gondola",
        "name": "Tognola",
        "ref": "8"
      },
      "geometry": {
        "type": "LineString",
        "coordinates": [
          [
            11.7988176,
            46.2549718
          ],
          [
            11.77744,
            46.2416303
          ]
        ]
      },
      "id": "way/23450262"
    },
    {
      "type": "Feature",
      "properties": {
        "@id": "way/24310196",
        "aerialway": "gondola",
        "aerialway:capacity": "2000",
        "aerialway:occupancy": "8",
        "name": "Pian Frataces - Gherdecia",
        "ref": "105"
      },
      "geometry": {
        "type": "LineString",
        "coordinates": [
          [
            11.7829415,
            46.490651
          ],
          [
            11.7835211,
            46.4904293
          ],
          [
            11.7852459,
            46.4897696
          ],
          [
            11.786284,
            46.4893725
          ],
          [
            11.7871761,
            46.4890313
          ],
          [
            11.7885536,
            46.4885044
          ],
          [
            11.7900715,
            46.4879238
          ],
          [
            11.7912444,
            46.4874752
          ],
          [
            11.7922845,
            46.4870708
          ],
          [
            11.7938049,
            46.4864957
          ],
          [
            11.7948721,
            46.4860875
          ],
          [
            11.7960715,
            46.4856287
          ],
          [
            11.7986178,
            46.4846547
          ],
          [
            11.79869,
            46.4846271
          ],
          [
            11.7995235,
            46.4843082
          ],
          [
            11.8009104,
            46.4837777
          ],
          [
            11.8030291,
            46.4829672
          ],
          [
            11.8044496,
            46.4824238
          ],
          [
            11.8049547,
            46.4822306
          ]
        ]
      },
      "id": "way/24310196"
    },
    {
      "type": "Feature",
      "properties": {
        "@id": "way/25706901",
        "aerialway": "gondola",
        "name": "5 Laghi express"
      },
      "geometry": {
        "type": "LineString",
        "coordinates": [
          [
            10.8258606,
            46.2303127
          ],
          [
            10.8012265,
            46.2262133
          ]
        ]
      },
      "id": "way/25706901"
    },
    {
      "type": "Feature",
      "properties": {
        "@id": "way/25916964",
        "aerialway": "gondola",
        "aerialway:capacity": "2400",
        "name": "Stalimen - Gardonè",
        "ref": "30"
      },
      "geometry": {
        "type": "LineString",
        "coordinates": [
          [
            11.6020491,
            46.3277214
          ],
          [
            11.5864878,
            46.3361594
          ],
          [
            11.5781643,
            46.3406722
          ]
        ]
      },
      "id": "way/25916964"
    },
    {
      "type": "Feature",
      "properties": {
        "@id": "way/26724330",
        "aerialway": "gondola",
        "aerialway:capacity": "1400",
        "aerialway:duration": "5.917",
        "aerialway:occupancy": "6",
        "name": "Peio Fonti - Tarlenta",
        "ref": "1"
      },
      "geometry": {
        "type": "LineString",
        "coordinates": [
          [
            10.6624695,
            46.3560387
          ],
          [
            10.6618925,
            46.35957
          ],
          [
            10.6615724,
            46.361467
          ],
          [
            10.6614715,
            46.3621477
          ],
          [
            10.661403,
            46.3626104
          ],
          [
            10.6612201,
            46.3636946
          ],
          [
            10.6610359,
            46.3647587
          ],
          [
            10.6608695,
            46.365757
          ],
          [
            10.6607431,
            46.3665088
          ],
          [
            10.6605389,
            46.3677673
          ],
          [
            10.6602435,
            46.3696606
          ],
          [
            10.660173,
            46.370036
          ]
        ]
      },
      "id": "way/26724330"
    },
    {
      "type": "Feature",
      "properties": {
        "@id": "way/27175778",
        "aerialway": "gondola",
        "aerialway:bubble": "yes",
        "aerialway:heating": "no",
        "aerialway:occupancy": "12",
        "name": "(31) Pradalago express",
        "ref": "16"
      },
      "geometry": {
        "type": "LineString",
        "coordinates": [
          [
            10.8254827,
            46.2340258
          ],
          [
            10.8129909,
            46.2472386
          ]
        ]
      },
      "id": "way/27175778"
    },
    {
      "type": "Feature",
      "properties": {
        "@id": "way/27176128",
        "aerialway": "gondola",
        "aerialway:bubble": "yes",
        "aerialway:heating": "no",
        "aerialway:occupancy": "6",
        "name": "(45) Grostè 1 express"
      },
      "geometry": {
        "type": "LineString",
        "coordinates": [
          [
            10.8361424,
            46.2367332
          ],
          [
            10.837434,
            46.2363948
          ],
          [
            10.8385821,
            46.2360939
          ],
          [
            10.8398719,
            46.2357559
          ],
          [
            10.8413139,
            46.2353781
          ],
          [
            10.8415854,
            46.2353069
          ],
          [
            10.8432709,
            46.2348653
          ],
          [
            10.8445178,
            46.2345385
          ],
          [
            10.847076,
            46.2338682
          ],
          [
            10.8489468,
            46.2333779
          ],
          [
            10.8503374,
            46.2330135
          ],
          [
            10.8512274,
            46.2327803
          ],
          [
            10.8637875,
            46.2294888
          ],
          [
            10.8657957,
            46.2289625
          ],
          [
            10.8667508,
            46.2287122
          ],
          [
            10.8676085,
            46.2284874
          ],
          [
            10.8676836,
            46.2284677
          ],
          [
            10.8690621,
            46.2281065
          ],
          [
            10.8732591,
            46.2270065
          ],
          [
            10.8748717,
            46.2265839
          ],
          [
            10.8754095,
            46.2264429
          ],
          [
            10.8761385,
            46.2262519
          ]
        ]
      },
      "id": "way/27176128"
    },
    {
      "type": "Feature",
      "properties": {
        "@id": "way/28177975",
        "aerialway": "gondola",
        "aerialway:capacity": "2600",
        "aerialway:occupancy": "8",
        "layer": "1",
        "name": "Andalo - Doss Pelà",
        "ref": "1"
      },
      "geometry": {
        "type": "LineString",
        "coordinates": [
          [
            11.0055995,
            46.1635736
          ],
          [
            11.0058335,
            46.163306
          ],
          [
            11.0059464,
            46.1631768
          ],
          [
            11.0067153,
            46.1622972
          ],
          [
            11.0073021,
            46.161626
          ],
          [
            11.0083953,
            46.1603754
          ],
          [
            11.0094966,
            46.1591154
          ],
          [
            11.0102149,
            46.1582937
          ],
          [
            11.0112407,
            46.1571201
          ],
          [
            11.0126085,
            46.1555552
          ],
          [
            11.0137,
            46.1543065
          ],
          [
            11.0145939,
            46.1532837
          ],
          [
            11.016776,
            46.150787
          ],
          [
            11.0176082,
            46.1498348
          ],
          [
            11.0186453,
            46.1486481
          ],
          [
            11.0197646,
            46.1473673
          ],
          [
            11.0207286,
            46.1462643
          ],
          [
            11.0209518,
            46.1460089
          ],
          [
            11.021341,
            46.1455635
          ]
        ]
      },
      "id": "way/28177975"
    },
    {
      "type": "Feature",
      "properties": {
        "@id": "way/28461142",
        "aerialway": "gondola",
        "aerialway:capacity": "2000",
        "aerialway:occupancy": "8",
        "name": "Pradel - Rodella",
        "ref": "155"
      },
      "geometry": {
        "type": "LineString",
        "coordinates": [
          [
            11.7810397,
            46.4923672
          ],
          [
            11.7784042,
            46.4932799
          ],
          [
            11.7765725,
            46.4939141
          ],
          [
            11.7762964,
            46.4940098
          ],
          [
            11.7754503,
            46.4943028
          ],
          [
            11.7740797,
            46.4947774
          ],
          [
            11.7730554,
            46.495132
          ],
          [
            11.7723165,
            46.4953879
          ],
          [
            11.7712045,
            46.495773
          ],
          [
            11.7693881,
            46.4964019
          ],
          [
            11.7670485,
            46.4972121
          ],
          [
            11.764525,
            46.4980859
          ],
          [
            11.7633188,
            46.4985035
          ],
          [
            11.7611003,
            46.4992717
          ],
          [
            11.759353,
            46.4998767
          ],
          [
            11.7589583,
            46.5000133
          ],
          [
            11.7571385,
            46.5006434
          ],
          [
            11.7564051,
            46.5008974
          ],
          [
            11.7528376,
            46.5021326
          ],
          [
            11.7523988,
            46.5022845
          ]
        ]
      },
      "id": "way/28461142"
    },
    {
      "type": "Feature",
      "properties": {
        "@id": "way/28461150",
        "aerialway": "gondola",
        "aerialway:occupancy": "8",
        "name": "Toè",
        "ref": "104"
      },
      "geometry": {
        "type": "LineString",
        "coordinates": [
          [
            11.789586,
            46.4803636
          ],
          [
            11.7904845,
            46.4801812
          ],
          [
            11.7914727,
            46.4799807
          ],
          [
            11.7929885,
            46.479673
          ],
          [
            11.7947058,
            46.4793245
          ],
          [
            11.795071,
            46.4792504
          ],
          [
            11.7957666,
            46.4791092
          ],
          [
            11.7969079,
            46.4788776
          ],
          [
            11.7981144,
            46.4786328
          ],
          [
            11.7985055,
            46.4785534
          ],
          [
            11.8005617,
            46.4781361
          ],
          [
            11.8020893,
            46.477826
          ],
          [
            11.8039745,
            46.4774434
          ],
          [
            11.8045741,
            46.4773217
          ]
        ]
      },
      "id": "way/28461150"
    },
    {
      "type": "Feature",
      "properties": {
        "@id": "way/30286201",
        "aerialway": "gondola",
        "name": "Contrè - Malga Copai"
      },
      "geometry": {
        "type": "LineString",
        "coordinates": [
          [
            10.8125334,
            46.3141054
          ],
          [
            10.8124468,
            46.313707
          ],
          [
            10.8123222,
            46.313134
          ],
          [
            10.8121515,
            46.3123492
          ],
          [
            10.8120723,
            46.3119849
          ],
          [
            10.8117816,
            46.3106481
          ],
          [
            10.8115103,
            46.3094008
          ],
          [
            10.8112459,
            46.3081846
          ],
          [
            10.8110112,
            46.3071053
          ],
          [
            10.8107607,
            46.3059533
          ],
          [
            10.8105977,
            46.3052036
          ],
          [
            10.8104342,
            46.3044516
          ],
          [
            10.8102629,
            46.303664
          ],
          [
            10.8100304,
            46.3025947
          ],
          [
            10.8098429,
            46.3017324
          ],
          [
            10.8098237,
            46.301644
          ],
          [
            10.8097687,
            46.3013911
          ]
        ]
      },
      "id": "way/30286201"
    },
    {
      "type": "Feature",
      "properties": {
        "@id": "way/30286590",
        "aerialway": "gondola",
        "aerialway:capacity": "2190",
        "name": "Copai - Panciana",
        "ref": "20"
      },
      "geometry": {
        "type": "LineString",
        "coordinates": [
          [
            10.8121352,
            46.3019878
          ],
          [
            10.820865,
            46.286022
          ]
        ]
      },
      "id": "way/30286590"
    },
    {
      "type": "Feature",
      "properties": {
        "@id": "way/31749384",
        "aerialway": "gondola",
        "aerialway:capacity": "2000",
        "aerialway:occupancy": "8",
        "name": "Hubertus",
        "ref": "412"
      },
      "geometry": {
        "type": "LineString",
        "coordinates": [
          [
            11.5924505,
            46.4075583
          ],
          [
            11.6071038,
            46.4031684
          ]
        ]
      },
      "id": "way/31749384"
    },
    {
      "type": "Feature",
      "properties": {
        "@id": "way/36662975",
        "aerialway": "gondola",
        "name": "Funivie Molveno Pradel",
        "source": "survey"
      },
      "geometry": {
        "type": "LineString",
        "coordinates": [
          [
            10.9651018,
            46.1443417
          ],
          [
            10.9649736,
            46.1445542
          ],
          [
            10.9647261,
            46.1449649
          ],
          [
            10.9643928,
            46.1455176
          ],
          [
            10.9640084,
            46.1461551
          ],
          [
            10.9639247,
            46.146294
          ],
          [
            10.9638178,
            46.1464712
          ],
          [
            10.9636235,
            46.1467935
          ],
          [
            10.9632591,
            46.1473979
          ],
          [
            10.9627451,
            46.1482504
          ],
          [
            10.9624315,
            46.1487704
          ],
          [
            10.9620589,
            46.1493885
          ],
          [
            10.9616276,
            46.1501037
          ],
          [
            10.9614707,
            46.1503639
          ],
          [
            10.9614138,
            46.1504582
          ],
          [
            10.9613735,
            46.1505251
          ],
          [
            10.9608627,
            46.1513722
          ],
          [
            10.9607746,
            46.1515184
          ]
        ]
      },
      "id": "way/36662975"
    },
    {
      "type": "Feature",
      "properties": {
        "@id": "way/39273804",
        "aerialway": "gondola",
        "aerialway:bubble": "no",
        "aerialway:heating": "no",
        "aerialway:occupancy": "2",
        "name": "Fedaia - Pian dei Fiacconi",
        "oneway": "no",
        "ref": "171"
      },
      "geometry": {
        "type": "LineString",
        "coordinates": [
          [
            11.8633339,
            46.4586394
          ],
          [
            11.8601544,
            46.4460426
          ]
        ]
      },
      "id": "way/39273804"
    },
    {
      "type": "Feature",
      "properties": {
        "@id": "way/39275726",
        "aerialway": "gondola",
        "name": "Cabinovia Colverde"
      },
      "geometry": {
        "type": "LineString",
        "coordinates": [
          [
            11.8052124,
            46.2641261
          ],
          [
            11.8054733,
            46.2642529
          ],
          [
            11.8055669,
            46.2642984
          ],
          [
            11.8060466,
            46.2645317
          ],
          [
            11.8078505,
            46.2654086
          ],
          [
            11.8092332,
            46.2660807
          ],
          [
            11.8109774,
            46.2669286
          ],
          [
            11.8121197,
            46.2674839
          ],
          [
            11.8132256,
            46.2680215
          ],
          [
            11.8150047,
            46.2688863
          ],
          [
            11.815293,
            46.2690263
          ],
          [
            11.8167043,
            46.2697116
          ],
          [
            11.8183138,
            46.2704931
          ],
          [
            11.8205792,
            46.2715931
          ],
          [
            11.8209962,
            46.2717955
          ],
          [
            11.8212851,
            46.2719358
          ]
        ]
      },
      "id": "way/39275726"
    },
    {
      "type": "Feature",
      "properties": {
        "@id": "way/39823167",
        "aerialway": "gondola",
        "name": "Folgarida"
      },
      "geometry": {
        "type": "LineString",
        "coordinates": [
          [
            10.858995,
            46.3034013
          ],
          [
            10.8512062,
            46.2906484
          ]
        ]
      },
      "id": "way/39823167"
    },
    {
      "type": "Feature",
      "properties": {
        "@id": "way/49357314",
        "aerialway": "gondola",
        "aerialway:capacity": "2000",
        "aerialway:duration": "5:50",
        "aerialway:occupancy": "10",
        "length": "1900",
        "name": "Alba – Ciampac",
        "ref": "131"
      },
      "geometry": {
        "type": "LineString",
        "coordinates": [
          [
            11.7886914,
            46.4579431
          ],
          [
            11.772194,
            46.4465999
          ]
        ]
      },
      "id": "way/49357314"
    },
    {
      "type": "Feature",
      "properties": {
        "@id": "way/50840884",
        "aerialway": "gondola",
        "name": "Belvedere"
      },
      "geometry": {
        "type": "LineString",
        "coordinates": [
          [
            10.8670939,
            46.2989287
          ],
          [
            10.8516932,
            46.2906726
          ]
        ]
      },
      "id": "way/50840884"
    },
    {
      "type": "Feature",
      "properties": {
        "@id": "way/52302204",
        "aerialway": "gondola",
        "aerialway:capacity": "1875",
        "aerialway:duration": "4",
        "aerialway:occupancy": "8",
        "name": "Presena",
        "ref": "28"
      },
      "geometry": {
        "type": "LineString",
        "coordinates": [
          [
            10.580643,
            46.2385123
          ],
          [
            10.5802863,
            46.2279328
          ]
        ]
      },
      "id": "way/52302204"
    },
    {
      "type": "Feature",
      "properties": {
        "@id": "way/52302205",
        "aerialway": "gondola",
        "aerialway:capacity": "1800",
        "aerialway:duration": "5",
        "aerialway:occupancy": "15",
        "name": "Paradiso",
        "ref": "27"
      },
      "geometry": {
        "type": "LineString",
        "coordinates": [
          [
            10.5717326,
            46.256842
          ],
          [
            10.5730139,
            46.2542216
          ],
          [
            10.5769518,
            46.2461612
          ],
          [
            10.578009,
            46.2439972
          ],
          [
            10.5803892,
            46.2391331
          ]
        ]
      },
      "id": "way/52302205"
    },
    {
      "type": "Feature",
      "properties": {
        "@id": "way/58178097",
        "aerialway": "gondola",
        "aerialway:capacity": "2400",
        "aerialway:occupancy": "10",
        "name": "Colbricon Express"
      },
      "geometry": {
        "type": "LineString",
        "coordinates": [
          [
            11.7892612,
            46.2640884
          ],
          [
            11.7679713,
            46.2737306
          ]
        ]
      },
      "id": "way/58178097"
    },
    {
      "type": "Feature",
      "properties": {
        "@id": "way/90835840",
        "aerialway": "gondola",
        "aerialway:capacity": "1800",
        "aerialway:occupancy": "8",
        "name": "Laghet - Prati di Gaggia",
        "ref": "7"
      },
      "geometry": {
        "type": "LineString",
        "coordinates": [
          [
            11.0014308,
            46.1594145
          ],
          [
            11.0005503,
            46.1577222
          ],
          [
            11.0000877,
            46.156833
          ],
          [
            10.9990476,
            46.154834
          ],
          [
            10.9986596,
            46.1540883
          ],
          [
            10.9983058,
            46.1534082
          ],
          [
            10.9974767,
            46.1518145
          ],
          [
            10.9967507,
            46.1504189
          ],
          [
            10.9965887,
            46.1501075
          ]
        ]
      },
      "id": "way/90835840"
    },
    {
      "type": "Feature",
      "properties": {
        "@id": "way/94364355",
        "aerialway": "gondola",
        "aerialway:capacity": "2000",
        "name": "Daolasa - Val Mastellina 1",
        "ref": "25"
      },
      "geometry": {
        "type": "LineString",
        "coordinates": [
          [
            10.8363735,
            46.3191903
          ],
          [
            10.8367113,
            46.3032108
          ]
        ]
      },
      "id": "way/94364355"
    },
    {
      "type": "Feature",
      "properties": {
        "@id": "way/94364358",
        "aerialway": "gondola",
        "name": "Albaré",
        "ref": "14"
      },
      "geometry": {
        "type": "LineString",
        "coordinates": [
          [
            10.8116853,
            46.3045295
          ],
          [
            10.811708,
            46.3043832
          ],
          [
            10.8117227,
            46.3042884
          ],
          [
            10.8117808,
            46.3039136
          ],
          [
            10.8119137,
            46.3030554
          ],
          [
            10.81201,
            46.3024346
          ],
          [
            10.8120489,
            46.3021833
          ]
        ]
      },
      "id": "way/94364358"
    },
    {
      "type": "Feature",
      "properties": {
        "@id": "way/94364363",
        "aerialway": "gondola",
        "aerialway:capacity": "2000",
        "name": "Daolasa - Val Mastellina 2",
        "ref": "26"
      },
      "geometry": {
        "type": "LineString",
        "coordinates": [
          [
            10.8367528,
            46.3030373
          ],
          [
            10.8368023,
            46.3027987
          ],
          [
            10.8367998,
            46.3027498
          ]
        ]
      },
      "id": "way/94364363"
    },
    {
      "type": "Feature",
      "properties": {
        "@id": "way/145007899",
        "aerialway": "gondola",
        "aerialway:capacity": "2600",
        "aerialway:occupancy": "10",
        "name": "Le Fassane - La Morea",
        "ref": "45"
      },
      "geometry": {
        "type": "LineString",
        "coordinates": [
          [
            11.6982838,
            46.3242362
          ],
          [
            11.7080222,
            46.3311638
          ]
        ]
      },
      "id": "way/145007899"
    },
    {
      "type": "Feature",
      "properties": {
        "@id": "way/199275485",
        "aerialway": "gondola",
        "aerialway:capacity": "2400",
        "aerialway:duration": "6",
        "aerialway:occupancy": "8",
        "name": "Ronchi - Valbona",
        "opening_hours": "Mo-Su 08:30-16:00"
      },
      "geometry": {
        "type": "LineString",
        "coordinates": [
          [
            11.6877826,
            46.3680939
          ],
          [
            11.6875074,
            46.3672315
          ],
          [
            11.6848972,
            46.3578616
          ]
        ]
      },
      "id": "way/199275485"
    },
    {
      "type": "Feature",
      "properties": {
        "@id": "way/199518475",
        "aerialway": "gondola",
        "aerialway:occupancy": "10",
        "name": "Castelir - Le Fassane",
        "ref": "44"
      },
      "geometry": {
        "type": "LineString",
        "coordinates": [
          [
            11.6880569,
            46.3131927
          ],
          [
            11.6982838,
            46.3242362
          ]
        ]
      },
      "id": "way/199518475"
    },
    {
      "type": "Feature",
      "properties": {
        "@id": "way/199518476",
        "aerialway": "gondola",
        "aerialway:capacity": "8",
        "name": "Valbona - Le Cune",
        "ref": "202"
      },
      "geometry": {
        "type": "LineString",
        "coordinates": [
          [
            11.6848972,
            46.3578616
          ],
          [
            11.6934904,
            46.3460734
          ]
        ]
      },
      "id": "way/199518476"
    },
    {
      "type": "Feature",
      "properties": {
        "@id": "way/223679392",
        "aerialway": "gondola",
        "fixme": "type aerialway",
        "name": "Pinzolo Campiglio express III"
      },
      "geometry": {
        "type": "LineString",
        "coordinates": [
          [
            10.8218189,
            46.2188276
          ],
          [
            10.8211682,
            46.2197337
          ],
          [
            10.8201939,
            46.2210903
          ],
          [
            10.8194043,
            46.2221898
          ],
          [
            10.8184131,
            46.2235699
          ],
          [
            10.8175635,
            46.2247528
          ],
          [
            10.8167034,
            46.2259502
          ],
          [
            10.8159671,
            46.2269753
          ],
          [
            10.815372,
            46.2278038
          ],
          [
            10.8151423,
            46.2281236
          ]
        ]
      },
      "id": "way/223679392"
    },
    {
      "type": "Feature",
      "properties": {
        "@id": "way/223679396",
        "aerialway": "gondola",
        "name": "Pinzolo Campiglio express II"
      },
      "geometry": {
        "type": "LineString",
        "coordinates": [
          [
            10.8197615,
            46.1977309
          ],
          [
            10.8198466,
            46.1986514
          ],
          [
            10.8200076,
            46.2002835
          ],
          [
            10.8201769,
            46.2020001
          ],
          [
            10.820296,
            46.2032079
          ],
          [
            10.8204752,
            46.2050249
          ],
          [
            10.8206572,
            46.2068697
          ],
          [
            10.8208375,
            46.208698
          ],
          [
            10.8209704,
            46.2100452
          ],
          [
            10.8211047,
            46.2114066
          ],
          [
            10.8212262,
            46.2126376
          ],
          [
            10.8213814,
            46.2142116
          ],
          [
            10.8215823,
            46.2162474
          ],
          [
            10.8217372,
            46.2178175
          ],
          [
            10.8218337,
            46.2187964
          ]
        ]
      },
      "id": "way/223679396"
    },
    {
      "type": "Feature",
      "properties": {
        "@id": "way/242496883",
        "aerialway": "gondola",
        "aerialway:occupancy": "4",
        "name": "Pinzolo Campiglio express I"
      },
      "geometry": {
        "type": "LineString",
        "coordinates": [
          [
            10.8197565,
            46.1977199
          ],
          [
            10.817059,
            46.187788
          ]
        ]
      },
      "id": "way/242496883"
    },
    {
      "type": "Feature",
      "properties": {
        "@id": "way/243640141",
        "aerialway": "gondola",
        "name": "Tulot - Malga Cioca"
      },
      "geometry": {
        "type": "LineString",
        "coordinates": [
          [
            10.8003185,
            46.1736914
          ],
          [
            10.7708217,
            46.1762952
          ]
        ]
      },
      "id": "way/243640141"
    },
    {
      "type": "Feature",
      "properties": {
        "@id": "way/317776329",
        "aerialway": "gondola",
        "aerialway:capacity": "2000",
        "name": "Cavalese - Fondovalle",
        "ref": "1"
      },
      "geometry": {
        "type": "LineString",
        "coordinates": [
          [
            11.4646986,
            46.2851559
          ],
          [
            11.4715753,
            46.2831699
          ]
        ]
      },
      "id": "way/317776329"
    },
    {
      "type": "Feature",
      "properties": {
        "@id": "way/327015525",
        "aerialway": "gondola",
        "aerialway:heating": "no",
        "aerialway:occupancy": "6",
        "name": "(46) Grostè 2 express"
      },
      "geometry": {
        "type": "LineString",
        "coordinates": [
          [
            10.8761385,
            46.2262519
          ],
          [
            10.8765674,
            46.2260584
          ],
          [
            10.8766333,
            46.2260287
          ],
          [
            10.8771517,
            46.2257949
          ],
          [
            10.8780546,
            46.2253876
          ],
          [
            10.8789512,
            46.2249831
          ],
          [
            10.8807026,
            46.2241931
          ],
          [
            10.88158,
            46.2237973
          ],
          [
            10.8830104,
            46.2231521
          ],
          [
            10.8839941,
            46.2227083
          ],
          [
            10.8853305,
            46.2221054
          ],
          [
            10.886363,
            46.2216397
          ],
          [
            10.8879458,
            46.2209256
          ],
          [
            10.8894046,
            46.2202675
          ],
          [
            10.8913034,
            46.2194109
          ],
          [
            10.8923655,
            46.2189317
          ],
          [
            10.8931347,
            46.2185847
          ],
          [
            10.8941155,
            46.2181422
          ],
          [
            10.8948627,
            46.2178052
          ],
          [
            10.8958513,
            46.2173592
          ],
          [
            10.8978775,
            46.216445
          ],
          [
            10.9001085,
            46.2152053
          ]
        ]
      },
      "id": "way/327015525"
    },
    {
      "type": "Feature",
      "properties": {
        "@id": "way/702016964",
        "aerialway": "gondola",
        "aerialway:heating": "no",
        "aerialway:occupancy": "6",
        "name": "(46) Grostè 2 express"
      },
      "geometry": {
        "type": "LineString",
        "coordinates": [
          [
            10.9001085,
            46.2152053
          ],
          [
            10.9003311,
            46.2150908
          ]
        ]
      },
      "id": "way/702016964"
    },
    {
      "type": "Feature",
      "properties": {
        "@id": "way/702183346",
        "aerialway": "gondola",
        "aerialway:capacity": "2000",
        "name": "Daolasa - Val Mastellina 1",
        "ref": "25"
      },
      "geometry": {
        "type": "LineString",
        "coordinates": [
          [
            10.8367113,
            46.3032108
          ],
          [
            10.8367528,
            46.3030373
          ]
        ]
      },
      "id": "way/702183346"
    },
    {
      "type": "Feature",
      "properties": {
        "@id": "way/702183347",
        "aerialway": "gondola",
        "aerialway:capacity": "2000",
        "name": "Daolasa - Val Mastellina 2",
        "ref": "26"
      },
      "geometry": {
        "type": "LineString",
        "coordinates": [
          [
            10.8367998,
            46.3027498
          ],
          [
            10.8323412,
            46.2807009
          ]
        ]
      },
      "id": "way/702183347"
    },
    {
      "type": "Feature",
      "properties": {
        "@id": "way/767889369",
        "aerialway": "gondola",
        "aerialway:capacity": "2400",
        "aerialway:occupancy": "10",
        "name": "Pian Dosson - Selletta"
      },
      "geometry": {
        "type": "LineString",
        "coordinates": [
          [
            11.016655,
            46.1537955
          ],
          [
            11.0185514,
            46.1534351
          ],
          [
            11.0252213,
            46.1521673
          ],
          [
            11.0255171,
            46.1521111
          ],
          [
            11.0291759,
            46.1514157
          ],
          [
            11.0347965,
            46.1503473
          ],
          [
            11.0365818,
            46.150008
          ]
        ]
      },
      "id": "way/767889369"
    }
  ]
}